module gitlab.com/biguitarman/socketio

go 1.17

require (
	github.com/gobwas/ws v1.1.0
	github.com/google/uuid v1.3.0
	github.com/stretchr/testify v1.7.1
	github.com/vmihailenco/msgpack v4.0.4+incompatible
	golang.org/x/net v0.1.0
	golang.org/x/sync v0.1.0
	golang.org/x/text v0.4.0
	nhooyr.io/websocket v1.8.7
)

require (
	github.com/davecgh/go-spew v1.1.1 // indirect
	github.com/gobwas/httphead v0.1.0 // indirect
	github.com/gobwas/pool v0.2.1 // indirect
	github.com/golang/protobuf v1.5.2 // indirect
	github.com/klauspost/compress v1.10.3 // indirect
	github.com/pmezard/go-difflib v1.0.0 // indirect
	golang.org/x/sys v0.1.0 // indirect
	google.golang.org/appengine v1.6.7 // indirect
	google.golang.org/protobuf v1.28.1 // indirect
	gopkg.in/yaml.v3 v3.0.0-20200313102051-9f266ea9e77c // indirect
)
